{
   "results" : [
      {
         "address_components" : [
            {
               "long_name" : "11",
               "short_name" : "11",
               "types" : [ "street_number" ]
            },
            {
               "long_name" : "海輝道",
               "short_name" : "海輝道",
               "types" : [ "route" ]
            },
            {
               "long_name" : "大角咀",
               "short_name" : "大角咀",
               "types" : [ "neighborhood", "political" ]
            },
            {
               "long_name" : "九龍",
               "short_name" : "九龍",
               "types" : [ "administrative_area_level_1", "political" ]
            },
            {
               "long_name" : "香港",
               "short_name" : "HK",
               "types" : [ "country", "political" ]
            }
         ],
         "formatted_address" : "香港大角咀海輝道11號",
         "geometry" : {
            "location" : {
               "lat" : 22.3187278,
               "lng" : 114.1585954
            },
            "location_type" : "APPROXIMATE",
            "viewport" : {
               "northeast" : {
                  "lat" : 22.3200767802915,
                  "lng" : 114.1599443802915
               },
               "southwest" : {
                  "lat" : 22.31737881970849,
                  "lng" : 114.1572464197085
               }
            }
         },
         "place_id" : "ChIJWV56_LoABDQRmUlKtySo0LQ",
         "types" : [ "establishment", "point_of_interest", "shopping_mall" ]
      }
   ],
   "status" : "OK"
}
